Grade analysis
…
Question 9

# A tibble: 729 × 2
   Group  Count_Missed_Exam
   <chr>              <int>
 1 grp_16                60
 2 grp_22                60
 3 grp_24                60
 4 grp_7                 60
 5 grp_4                 60
 6 grp_20                60
 7 grp_11                60
 8 grp_14                60
 9 grp_13                60
10 grp_22                60
# ℹ 719 more rows
…
